{
	"email":"johndoemailinator5@gmail.com",
	"gender": "MALE",
	"dob": "1991-02-20",
	"weight": 95.0,
	"height": 174.0,
	"caloryBurned": 1000,
	"caloryConsumed": 2000,
	"sleepHours": 6,
	"alcohol": {
		"consumed":true,
		"howmuch": 30
	},
	"smoke":{
		"consumed":true,
		"howmuch": 5
	},
	"softdrink":{
		"consumed":true,
		"howmuch": 200
	}
}